{
	"info": {
		"_postman_id": "2ea12a6b-a3d6-4bda-ab2f-57faa82a4ea3",
		"name": "Bitmask",
		"schema": "https://schema.getpostman.com/json/collection/v2.1.0/collection.json"
	},
	"item": [
		{
			"name": "Calyx",
			"item": [
				{
					"name": "https://api.calyx.net:4430/3/cert",
					"request": {
						"method": "POST",
						"header": [],
						"url": {
							"raw": "https://api.calyx.net:4430/3/cert",
							"protocol": "https",
							"host": [
								"api",
								"calyx",
								"net"
							],
							"port": "4430",
							"path": [
								"3",
								"cert"
							]
						}
					},
					"response": [
						{
							"name": "https://api.calyx.net:4430/3/cert",
							"originalRequest": {
								"method": "POST",
								"header": [],
								"url": {
									"raw": "https://api.calyx.net:4430/3/cert",
									"protocol": "https",
									"host": [
										"api",
										"calyx",
										"net"
									],
									"port": "4430",
									"path": [
										"3",
										"cert"
									]
								}
							},
							"status": "OK",
							"code": 200,
							"_postman_previewlanguage": "plain",
							"header": [
								{
									"key": "Date",
									"value": "Mon, 06 Apr 2020 03:29:10 GMT"
								},
								{
									"key": "Server",
									"value": "Apache/2.4.10 (Debian)"
								},
								{
									"key": "X-Frame-Options",
									"value": "DENY"
								},
								{
									"key": "X-XSS-Protection",
									"value": "1; mode=block"
								},
								{
									"key": "X-Content-Type-Options",
									"value": "nosniff"
								},
								{
									"key": "Cache-Control",
									"value": "no-cache, no-store, must-revalidate"
								},
								{
									"key": "Pragma",
									"value": "no-cache"
								},
								{
									"key": "Expires",
									"value": "0"
								},
								{
									"key": "Content-Language",
									"value": "en"
								},
								{
									"key": "X-Request-Id",
									"value": "766f4904-75d5-45d1-b02a-7f6fc9a30dbc"
								},
								{
									"key": "Status",
									"value": "200 OK"
								},
								{
									"key": "Keep-Alive",
									"value": "timeout=5, max=98"
								},
								{
									"key": "Connection",
									"value": "Keep-Alive"
								},
								{
									"key": "Transfer-Encoding",
									"value": "chunked"
								},
								{
									"key": "Content-Type",
									"value": "text/plain; charset=utf-8"
								}
							],
							"cookie": [],
							"body": "-----BEGIN RSA PRIVATE KEY-----\nMIIEowIBAAKCAQEAqBzbEwPWXKZ742HlHeWjnsVBmNNxLGiUblxo5eK/lBtSZTeH\nfsh9zTE/pjoh3Mk4gUyJSTnd3rRHj33tSwkI+UbUYojbaguJSAbNCkroeiXQd55D\nCvW4KDvT+T8Bsk9coiQWZdHoy6s71CSphH7GvhkClkQPc319kYWgSiRaDrHftaiM\nCxQLYYTn1j/ygI5LUGIDjajPn9iBZ4lBbiXmwIAnYvcB8SagT0YOIeClDBqk4dZq\nRRQHS0GZM7Pkys01fnNQLZ2H4LfOVGiNbKN1iwPAkCKwsAFPg/KkuMukxY5oopK/\ngO6VKg6q/vrQNpQMUmM2IVBXcxRRAOC4ZC2OcwIDAQABAoIBAFt/IQjvXLsebW0r\nOb0U4AGo0HPyGLWX0bljGECOMcDVQfoOx/MMAdQtCrxZBVcaOWO+GTY+hXARZKVH\nX2AocbbigvOCExFbaANImE4SyQa6EAUaoNiVNf7H2S3dyfmXUg55X6tZHL/E2ZIz\nxgNz0I1kJVFNh69OzInoVX4k3NMDwJXs7KqB2ZvN1asn4MQEY0vLH1l2uwAHQxSw\ncFn/u1I1HLXM5mZoWRbNWOfPuh53Y+UIxLpxK4LITvhVH7HbDctNQHOgXxQJF6QU\nsL02XzvZgeyKarEpgXJcjl7PnLvc2d/CJKWDwjxP0p6F5Oz3D2AVecbgZV3eOsIR\nddoPbrkCgYEA1fKUmi68TB0KUNDShgE6teZgnB2e8MyIqnS9jV4CXbGhH9GYk9Ei\nU3g+Yyw13psQDT1lOkX6NADk0zAmz316souK62h2cYPv2S/sCGSwAeW3QL0VonYC\nMLNMFfwj6ec/+wRz4zoLyJmE3dZu7lwxqUciuYtF9ZHV2AsdsKsMa9cCgYEAySf0\noHgjugfbnvWKZCMFTP7vOwkwrHVRlTiL1YUAwLs2OYkTLxugT/mrsgN6fPYFsBPM\nGf1vv/wC46aUCaHZTMuKgwIUkpLWeNV6fzuPixWi/CkAYuXX+Ns3HQyNAXV834ON\nASfBhUnOuxOoSTYkxrYYv4C7AlCbWMwauHZzvsUCgYEAl3YQdca4TzoP3362S1/7\nbGMX6e2eY+KorePPfZEcI7Bo3NnJJnxbzLPHlvXpfRpRls3sKAD6TG6FkGz6TNIM\nVvIq+tUNZPd+iUc/1gFSCUXTIeW6tzTMACYuqzHBSwoHZXGViTvCs9TbFyGDjwN9\ntNVDZA+RC3Se6z+TWUr+lCkCgYAIEPYaSTcFirMf2LDH+y+HOuHU+DVfdQTkevQA\nh+jT0a4G+JwwU2dGTbi41rLet+7adLDGigclJ7Hl9xQQntDb532Sa07v4bt/9O+I\nkpba+O8kNXCyhoz2ibPYElzFJjTvsZLB7RoxghgsIEmrReSLo1mytDLLkPfpw6V+\nqCFUEQKBgADXBU+za7SI//9rzoriYSSqg0//5a+TOzl9erRvCyldKTidDHJZCRDy\nshE9rjJK0+PnR7OescAskfdLDhsJru9pw8IacEwr2yGEbWHR0AmKW7qc/DwUnezH\nqBtzQN5mrIs8PF66i8BNKqxsEmJA5rz+13vvKuPys64/tS+irvv2\n-----END RSA PRIVATE KEY-----\n-----BEGIN CERTIFICATE-----\nMIIEhzCCAm+gAwIBAgIRAIIoYJM3Us8Ih2fUV4wvcDowDQYJKoZIhvcNAQELBQAw\nYDEOMAwGA1UECgwFY2FseXgxGjAYBgNVBAsMEWh0dHBzOi8vY2FseXgubmV0MTIw\nMAYDVQQDDCljYWx5eCBSb290IENBIChjbGllbnQgY2VydGlmaWNhdGVzIG9ubHkh\nKTAeFw0yMDAzMDYwMDAwMDBaFw0yMDA2MDYwMDAwMDBaMC0xKzApBgNVBAMMIlVO\nTElNSVRFRDY4d2txZjFjYWlqeTNkdnp5cHV1dGRpZDQwggEiMA0GCSqGSIb3DQEB\nAQUAA4IBDwAwggEKAoIBAQCoHNsTA9ZcpnvjYeUd5aOexUGY03EsaJRuXGjl4r+U\nG1JlN4d+yH3NMT+mOiHcyTiBTIlJOd3etEePfe1LCQj5RtRiiNtqC4lIBs0KSuh6\nJdB3nkMK9bgoO9P5PwGyT1yiJBZl0ejLqzvUJKmEfsa+GQKWRA9zfX2RhaBKJFoO\nsd+1qIwLFAthhOfWP/KAjktQYgONqM+f2IFniUFuJebAgCdi9wHxJqBPRg4h4KUM\nGqTh1mpFFAdLQZkzs+TKzTV+c1AtnYfgt85UaI1so3WLA8CQIrCwAU+D8qS4y6TF\njmiikr+A7pUqDqr++tA2lAxSYzYhUFdzFFEA4LhkLY5zAgMBAAGjbzBtMB0GA1Ud\nDgQWBBQ8sKmaveWYQKSJOkUrq50Md9OnHjALBgNVHQ8EBAMCB4AwEwYDVR0lBAww\nCgYIKwYBBQUHAwIwCQYDVR0TBAIwADAfBgNVHSMEGDAWgBTIQ2YsArakvCHlf2uo\nsy2I/Cgy0TANBgkqhkiG9w0BAQsFAAOCAgEAdfdbdeI1GmuvDnUBMqtchziUGT3k\nqv7uOJOVLreU91y+BFHOa8K7pAmz7Lv/Xq07aeNp8zu7X0QLmoHRwoG8OHP3oWnx\n+0Pe4l+e0s1mgn9k8IuiBZ1sjdywFXU5NyEQJiLktBrJsI5Fmlz9cfonCh4JqNF1\ngyKS2Lp6iMYZBJIQLCdh5Eybn1fOdpnCqhNTvtohhRim1hNGEYui1TTMI9fDDKqS\naPaq0Rfktr/S3ogq83qYuaiFGIKYLvOg9Oma1VoA+g7GAx5LvFnfSgon7orSQhT0\nT5D7H8+G7oxrKBpKf0uEhnSeZgFsnqZ2c2xURe47338wvsk4SbXBw3I4O91VcaDj\nRJm1zMKBWxg+4V0mlyhpuGnZ6Q+xgtRDmxBFqM0/Cm8SC/jixLHZ3zd5UFvWHpHU\n9b8p5bU0NTHGXYybEt91Z05PnMWvW0GXAJ8bUruJm0kzC70d5pyauwACA3K9GW0G\njk0ghPazotNLETIPvG5lIERJlUUge7seKV9xrhvKYVJIQ1Aix0D74eXggM30vnll\n5/gBEOJFo9kOOZglY7/6uZbcrBLC8od3b4r2puoEISyQYn+ThlA76Xed2p7fJdso\nOuMHVy/QFOuHS8rSRe2tnhzyPv23d0BwJ+c9+T+ujRZIZE+8WuJYnVxg11iIkV3V\nXdgzl5c6ot2vT8o=\n-----END CERTIFICATE-----\n"
						}
					]
				},
				{
					"name": "https://calyx.net/ca.crt",
					"request": {
						"method": "GET",
						"header": [],
						"url": {
							"raw": "https://calyx.net/ca.crt",
							"protocol": "https",
							"host": [
								"calyx",
								"net"
							],
							"path": [
								"ca.crt"
							]
						}
					},
					"response": [
						{
							"name": "https://calyx.net/ca.crt",
							"originalRequest": {
								"method": "GET",
								"header": [],
								"url": {
									"raw": "https://calyx.net/ca.crt",
									"protocol": "https",
									"host": [
										"calyx",
										"net"
									],
									"path": [
										"ca.crt"
									]
								}
							},
							"status": "OK",
							"code": 200,
							"_postman_previewlanguage": "raw",
							"header": [
								{
									"key": "Date",
									"value": "Tue, 07 Apr 2020 04:18:48 GMT"
								},
								{
									"key": "Server",
									"value": "Apache/2.4.10 (Debian)"
								},
								{
									"key": "Last-Modified",
									"value": "Sun, 02 Jul 2017 04:40:18 GMT"
								},
								{
									"key": "ETag",
									"value": "\"787-5534e3f57de8f\""
								},
								{
									"key": "Accept-Ranges",
									"value": "bytes"
								},
								{
									"key": "Content-Length",
									"value": "1927"
								},
								{
									"key": "Keep-Alive",
									"value": "timeout=5, max=100"
								},
								{
									"key": "Connection",
									"value": "Keep-Alive"
								},
								{
									"key": "Content-Type",
									"value": "application/x-x509-ca-cert"
								}
							],
							"cookie": [],
							"body": "-----BEGIN CERTIFICATE-----\nMIIFYzCCA0ugAwIBAgIBATANBgkqhkiG9w0BAQ0FADBEMQ4wDAYDVQQKDAVjYWx5\neDEaMBgGA1UECwwRaHR0cHM6Ly9jYWx5eC5uZXQxFjAUBgNVBAMMDWNhbHl4IFJv\nb3QgQ0EwHhcNMTMwNzAyMDAwMDAwWhcNMjMwNzAyMDAwMDAwWjBEMQ4wDAYDVQQK\nDAVjYWx5eDEaMBgGA1UECwwRaHR0cHM6Ly9jYWx5eC5uZXQxFjAUBgNVBAMMDWNh\nbHl4IFJvb3QgQ0EwggIiMA0GCSqGSIb3DQEBAQUAA4ICDwAwggIKAoICAQDupdnx\nBgat537XOqrZOulE/RvjoXB1S07sy9/MMtksXFoQuWJZRCSTp1Jaqg3H/e9o1nct\nLQO91+izfJe07TUyajFl7CfllYgMeyKTYcT85dFwNX4pcIHZr8UpmO0MpGBoR4W1\n8cPa3vxAG0CsyUmrASJVyhRouk4qazRosM5RwBxTdMzCK7L3SwqPQoxlY9YmRJlD\nXYZlK5VMJd0dj9XxhMeFs5n43R0bsDENryrExSbuxoNfnUoQg3wffKk+Z0gW7YgW\nivPsbObqOgXUuBEU0xr9xMNBpU33ffLIsccrHq1EKp8zGfCOcww6v7+zEadUkVLo\n6j/rRhYYgRw9lijZG1rMuV/mTGnUqbjHsdoz5mzkFFWeTSqo44lvhveUyCcwRNmi\n2sjS77l0fCTzfreufffFoOEcRVMRfsnJdu/xPeARoXILEx8nQ421mSn6spOZlDQr\nTt0T0BAWt+VNc+m0IGSW3SwS7r5MUyQ/M5GrbQBGi5W2SzPriKZ79YTOwPVmXKLZ\nvJoEuKRDkEPJLBAhcD5oSQljOm/Wp/hjmRH4HnI1y4XMshWlDsyRDB1Au5yrsfwN\nnoFVSskEcbXlZfNgml4lktLBqz+qwsw+voq6Ak7ROKbc0ii5s8+iNMbAtIK7GcFF\nkuKKIyRmmGlDim/SDhlNdWo7Ah4Akde7zfWufwIDAQABo2AwXjAdBgNVHQ4EFgQU\nAY8+K4ZupAQ+L9ttFJG3vaLBq5gwDgYDVR0PAQH/BAQDAgIEMAwGA1UdEwQFMAMB\nAf8wHwYDVR0jBBgwFoAUAY8+K4ZupAQ+L9ttFJG3vaLBq5gwDQYJKoZIhvcNAQEN\nBQADggIBAOpXi5o3g/2o2rPa53iG7Zgcy8RpePGgZk6xknGYWeLamEqSh+XWQZ2w\n2kQP54bf8HfPj3ugJBWsVtYAs/ltJwzeBfYDrwEJd1N8tw2IRuGlQOWiTAVVLBj4\nZs+dikSuMoA399f/7BlUIEpVLUiV/emTtbkjFnDeKEV9zql6ypR0BtR8Knf8ALvL\nYfMsWLvTe4rXeypzxIaE2pn8ttcXLYAX0ml2MofTi5xcDhMn1vznKIvs82xhncQx\nI1MJMWqPHNHgJUJpA+y1IFh5LPbpag9PKQ0yQ9sM+/dyGumF2jElsMw71flh/Txr\n2dEv8+FNV1pPK26XJZBK24rNWFs30eAFfH9EQCwVla174I4PDoWqsIR7vtQMObDt\nBq34R3TjjJJIt2sCSlYLooWwiK7Q+d/SgYqA+MSDmmwhzm86ToK6cwbCsvuw1AxR\nX6VIs4U8wOotgljzX/CSpKqlxcqZjhnAuelZ1+KiN8RHKPj7AzSLYOv/YwTjLTIq\nEOxquoNR58uDa5pBG22a7xWbSaKosn/mEl8SrUr6klzzc8Vh09IMoxrw74uLdAg2\n1jnrhm7qg91Ttb0aXiqbV+Kg/qQzojdewnnoBFnv4jaQ3y8zDCfMhsBtWlWz4Knb\nZqga1WyRm3Gj1j6IV0oOincYMrw5YA7bgXpwop/Lo/mmliMA14ps\n-----END CERTIFICATE-----\n"
						}
					]
				},
				{
					"name": "https://calyx.net/provider.json",
					"request": {
						"method": "GET",
						"header": [],
						"url": {
							"raw": "https://calyx.net/provider.json",
							"protocol": "https",
							"host": [
								"calyx",
								"net"
							],
							"path": [
								"provider.json"
							]
						}
					},
					"response": [
						{
							"name": "https://calyx.net/provider.json",
							"originalRequest": {
								"method": "GET",
								"header": [],
								"url": {
									"raw": "https://calyx.net/provider.json",
									"protocol": "https",
									"host": [
										"calyx",
										"net"
									],
									"path": [
										"provider.json"
									]
								}
							},
							"status": "OK",
							"code": 200,
							"_postman_previewlanguage": "json",
							"header": [
								{
									"key": "Date",
									"value": "Sat, 04 Apr 2020 19:41:32 GMT"
								},
								{
									"key": "Server",
									"value": "Apache/2.4.10 (Debian)"
								},
								{
									"key": "X-Frame-Options",
									"value": "SAMEORIGIN"
								},
								{
									"key": "X-XSS-Protection",
									"value": "1; mode=block"
								},
								{
									"key": "X-Content-Type-Options",
									"value": "nosniff"
								},
								{
									"key": "X-Minimum-Client-Version",
									"value": "0.9.2"
								},
								{
									"key": "Cache-Control",
									"value": "max-age=0, private, must-revalidate"
								},
								{
									"key": "X-Request-Id",
									"value": "14fcb2e9-cf59-4cda-a7cb-2fe07abb1830"
								},
								{
									"key": "Last-Modified",
									"value": "Fri, 03 Apr 2020 21:41:04 GMT"
								},
								{
									"key": "Status",
									"value": "200 OK"
								},
								{
									"key": "Keep-Alive",
									"value": "timeout=5, max=100"
								},
								{
									"key": "Connection",
									"value": "Keep-Alive"
								},
								{
									"key": "Transfer-Encoding",
									"value": "chunked"
								},
								{
									"key": "Content-Type",
									"value": "application/json; charset=utf-8"
								}
							],
							"cookie": [],
							"body": "{\n    \"api_uri\": \"https://api.calyx.net:4430\",\n    \"api_version\": \"3\",\n    \"ca_cert_fingerprint\": \"SHA256: 43683c9ba3862c5384a8c1885072fcac40b5d2d4dd67331443f13a3077fa2e69\",\n    \"ca_cert_uri\": \"https://calyx.net/ca.crt\",\n    \"default_language\": \"en\",\n    \"description\": {\n        \"en\": \"CalyxVPN\"\n    },\n    \"domain\": \"calyx.net\",\n    \"enrollment_policy\": \"open\",\n    \"languages\": [\n        \"en\"\n    ],\n    \"name\": {\n        \"en\": \"calyx\"\n    },\n    \"service\": {\n        \"allow_anonymous\": true,\n        \"allow_free\": true,\n        \"allow_limited_bandwidth\": false,\n        \"allow_paid\": false,\n        \"allow_registration\": false,\n        \"allow_unlimited_bandwidth\": true,\n        \"bandwidth_limit\": 102400,\n        \"default_service_level\": 1,\n        \"levels\": {\n            \"1\": {\n                \"description\": \"Please donate.\",\n                \"name\": \"free\"\n            }\n        }\n    },\n    \"services\": [\n        \"openvpn\"\n    ]\n}"
						}
					]
				},
				{
					"name": "https://api.calyx.net:4430/provider.json",
					"request": {
						"method": "GET",
						"header": [],
						"url": {
							"raw": "https://api.calyx.net:4430/provider.json",
							"protocol": "https",
							"host": [
								"api",
								"calyx",
								"net"
							],
							"port": "4430",
							"path": [
								"provider.json"
							]
						}
					},
					"response": [
						{
							"name": "https://api.calyx.net:4430/provider.json",
							"originalRequest": {
								"method": "GET",
								"header": [],
								"url": {
									"raw": "https://api.calyx.net:4430/provider.json",
									"protocol": "https",
									"host": [
										"api",
										"calyx",
										"net"
									],
									"port": "4430",
									"path": [
										"provider.json"
									]
								}
							},
							"status": "OK",
							"code": 200,
							"_postman_previewlanguage": "json",
							"header": [
								{
									"key": "Date",
									"value": "Sun, 05 Apr 2020 19:32:22 GMT"
								},
								{
									"key": "Server",
									"value": "Apache/2.4.10 (Debian)"
								},
								{
									"key": "X-Frame-Options",
									"value": "SAMEORIGIN"
								},
								{
									"key": "X-XSS-Protection",
									"value": "1; mode=block"
								},
								{
									"key": "X-Content-Type-Options",
									"value": "nosniff"
								},
								{
									"key": "X-Minimum-Client-Version",
									"value": "0.9.2"
								},
								{
									"key": "Cache-Control",
									"value": "max-age=0, private, must-revalidate"
								},
								{
									"key": "X-Request-Id",
									"value": "d56adc06-c92e-444a-b6e0-5add722de0e7"
								},
								{
									"key": "Last-Modified",
									"value": "Fri, 03 Apr 2020 21:41:04 GMT"
								},
								{
									"key": "Status",
									"value": "200 OK"
								},
								{
									"key": "Keep-Alive",
									"value": "timeout=5, max=100"
								},
								{
									"key": "Connection",
									"value": "Keep-Alive"
								},
								{
									"key": "Transfer-Encoding",
									"value": "chunked"
								},
								{
									"key": "Content-Type",
									"value": "application/json; charset=utf-8"
								}
							],
							"cookie": [],
							"body": "{\n    \"api_uri\": \"https://api.calyx.net:4430\",\n    \"api_version\": \"3\",\n    \"ca_cert_fingerprint\": \"SHA256: 43683c9ba3862c5384a8c1885072fcac40b5d2d4dd67331443f13a3077fa2e69\",\n    \"ca_cert_uri\": \"https://calyx.net/ca.crt\",\n    \"default_language\": \"en\",\n    \"description\": {\n        \"en\": \"CalyxVPN\"\n    },\n    \"domain\": \"calyx.net\",\n    \"enrollment_policy\": \"open\",\n    \"languages\": [\n        \"en\"\n    ],\n    \"name\": {\n        \"en\": \"calyx\"\n    },\n    \"service\": {\n        \"allow_anonymous\": true,\n        \"allow_free\": true,\n        \"allow_limited_bandwidth\": false,\n        \"allow_paid\": false,\n        \"allow_registration\": false,\n        \"allow_unlimited_bandwidth\": true,\n        \"bandwidth_limit\": 102400,\n        \"default_service_level\": 1,\n        \"levels\": {\n            \"1\": {\n                \"description\": \"Please donate.\",\n                \"name\": \"free\"\n            }\n        }\n    },\n    \"services\": [\n        \"openvpn\"\n    ]\n}"
						}
					]
				},
				{
					"name": "https://api.calyx.net:4430/1/configs.json",
					"request": {
						"method": "GET",
						"header": [],
						"url": {
							"raw": "https://api.calyx.net:4430/1/configs.json",
							"protocol": "https",
							"host": [
								"api",
								"calyx",
								"net"
							],
							"port": "4430",
							"path": [
								"1",
								"configs.json"
							]
						}
					},
					"response": [
						{
							"name": "https://api.calyx.net:4430/1/configs.json",
							"originalRequest": {
								"method": "GET",
								"header": [],
								"url": {
									"raw": "https://api.calyx.net:4430/1/configs.json",
									"protocol": "https",
									"host": [
										"api",
										"calyx",
										"net"
									],
									"port": "4430",
									"path": [
										"1",
										"configs.json"
									]
								}
							},
							"status": "OK",
							"code": 200,
							"_postman_previewlanguage": "json",
							"header": [
								{
									"key": "Date",
									"value": "Sun, 05 Apr 2020 18:54:01 GMT"
								},
								{
									"key": "Server",
									"value": "Apache/2.4.10 (Debian)"
								},
								{
									"key": "X-Frame-Options",
									"value": "DENY"
								},
								{
									"key": "X-XSS-Protection",
									"value": "1; mode=block"
								},
								{
									"key": "X-Content-Type-Options",
									"value": "nosniff"
								},
								{
									"key": "Cache-Control",
									"value": "no-cache, no-store, must-revalidate"
								},
								{
									"key": "Pragma",
									"value": "no-cache"
								},
								{
									"key": "Expires",
									"value": "0"
								},
								{
									"key": "Content-Language",
									"value": "en"
								},
								{
									"key": "X-Request-Id",
									"value": "a7edf573-486c-491b-8ab4-fc5b663fe407"
								},
								{
									"key": "Status",
									"value": "200 OK"
								},
								{
									"key": "Keep-Alive",
									"value": "timeout=5, max=99"
								},
								{
									"key": "Connection",
									"value": "Keep-Alive"
								},
								{
									"key": "Transfer-Encoding",
									"value": "chunked"
								},
								{
									"key": "Content-Type",
									"value": "application/json; charset=utf-8"
								}
							],
							"cookie": [],
							"body": "{\n    \"services\": {\n        \"soledad\": \"/1/configs/soledad-service.json\",\n        \"eip\": \"/1/configs/eip-service.json\",\n        \"smtp\": \"/1/configs/smtp-service.json\"\n    }\n}"
						}
					]
				},
				{
					"name": "https://api.calyx.net:4430/1/configs/eip-service.json",
					"request": {
						"method": "GET",
						"header": [],
						"url": {
							"raw": "https://api.calyx.net:4430/1/configs/eip-service.json",
							"protocol": "https",
							"host": [
								"api",
								"calyx",
								"net"
							],
							"port": "4430",
							"path": [
								"1",
								"configs",
								"eip-service.json"
							]
						}
					},
					"response": [
						{
							"name": "https://api.calyx.net:4430/1/configs/eip-service.json",
							"originalRequest": {
								"method": "GET",
								"header": [],
								"url": {
									"raw": "https://api.calyx.net:4430/1/configs/eip-service.json",
									"protocol": "https",
									"host": [
										"api",
										"calyx",
										"net"
									],
									"port": "4430",
									"path": [
										"1",
										"configs",
										"eip-service.json"
									]
								}
							},
							"status": "OK",
							"code": 200,
							"_postman_previewlanguage": "json",
							"header": [
								{
									"key": "Date",
									"value": "Sun, 05 Apr 2020 18:54:56 GMT"
								},
								{
									"key": "Server",
									"value": "Apache/2.4.10 (Debian)"
								},
								{
									"key": "X-Frame-Options",
									"value": "DENY"
								},
								{
									"key": "X-XSS-Protection",
									"value": "1; mode=block"
								},
								{
									"key": "X-Content-Type-Options",
									"value": "nosniff"
								},
								{
									"key": "Cache-Control",
									"value": "no-cache, no-store"
								},
								{
									"key": "Pragma",
									"value": "no-cache"
								},
								{
									"key": "Expires",
									"value": "0"
								},
								{
									"key": "Content-Language",
									"value": "en"
								},
								{
									"key": "X-Request-Id",
									"value": "e17068ad-e477-4cdf-b0b6-d8acef80dc49"
								},
								{
									"key": "Last-Modified",
									"value": "Sun, 02 Jul 2017 04:41:32 GMT"
								},
								{
									"key": "Status",
									"value": "200 OK"
								},
								{
									"key": "Keep-Alive",
									"value": "timeout=5, max=100"
								},
								{
									"key": "Connection",
									"value": "Keep-Alive"
								},
								{
									"key": "Transfer-Encoding",
									"value": "chunked"
								},
								{
									"key": "Content-Type",
									"value": "application/json; charset=utf-8"
								}
							],
							"cookie": [],
							"body": "{\n    \"gateways\": [\n        {\n            \"capabilities\": {\n                \"adblock\": false,\n                \"filter_dns\": false,\n                \"limited\": false,\n                \"ports\": [\n                    \"443\"\n                ],\n                \"protocols\": [\n                    \"tcp\"\n                ],\n                \"transport\": [\n                    \"openvpn\"\n                ],\n                \"user_ips\": false\n            },\n            \"host\": \"vpn2.calyx.net\",\n            \"ip_address\": \"162.247.73.193\"\n        }\n    ],\n    \"locations\": {},\n    \"openvpn_configuration\": {\n        \"auth\": \"SHA1\",\n        \"cipher\": \"AES-128-CBC\",\n        \"keepalive\": \"10 30\",\n        \"tls-cipher\": \"DHE-RSA-AES128-SHA\",\n        \"tun-ipv6\": true\n    },\n    \"serial\": 1,\n    \"version\": 1\n}"
						}
					]
				},
				{
					"name": "https://api.calyx.net:4430/1/configs/soledad-service.json",
					"request": {
						"method": "GET",
						"header": [],
						"url": {
							"raw": "https://api.calyx.net:4430/1/configs/soledad-service.json",
							"protocol": "https",
							"host": [
								"api",
								"calyx",
								"net"
							],
							"port": "4430",
							"path": [
								"1",
								"configs",
								"soledad-service.json"
							]
						}
					},
					"response": [
						{
							"name": "https://api.calyx.net:4430/1/configs/soledad-service.json",
							"originalRequest": {
								"method": "GET",
								"header": [],
								"url": {
									"raw": "https://api.calyx.net:4430/1/configs/soledad-service.json",
									"protocol": "https",
									"host": [
										"api",
										"calyx",
										"net"
									],
									"port": "4430",
									"path": [
										"1",
										"configs",
										"soledad-service.json"
									]
								}
							},
							"status": "OK",
							"code": 200,
							"_postman_previewlanguage": "json",
							"header": [
								{
									"key": "Date",
									"value": "Tue, 07 Apr 2020 04:21:59 GMT"
								},
								{
									"key": "Server",
									"value": "Apache/2.4.10 (Debian)"
								},
								{
									"key": "X-Frame-Options",
									"value": "DENY"
								},
								{
									"key": "X-XSS-Protection",
									"value": "1; mode=block"
								},
								{
									"key": "X-Content-Type-Options",
									"value": "nosniff"
								},
								{
									"key": "Cache-Control",
									"value": "no-cache, no-store"
								},
								{
									"key": "Pragma",
									"value": "no-cache"
								},
								{
									"key": "Expires",
									"value": "0"
								},
								{
									"key": "Content-Language",
									"value": "en"
								},
								{
									"key": "X-Request-Id",
									"value": "4c4547bc-a674-4e1e-89fb-d6951a742f5d"
								},
								{
									"key": "Last-Modified",
									"value": "Sun, 02 Jul 2017 04:41:32 GMT"
								},
								{
									"key": "Status",
									"value": "200 OK"
								},
								{
									"key": "Keep-Alive",
									"value": "timeout=5, max=100"
								},
								{
									"key": "Connection",
									"value": "Keep-Alive"
								},
								{
									"key": "Transfer-Encoding",
									"value": "chunked"
								},
								{
									"key": "Content-Type",
									"value": "application/json; charset=utf-8"
								}
							],
							"cookie": [],
							"body": "{\n    \"hosts\": {},\n    \"locations\": {},\n    \"serial\": 1,\n    \"version\": 1\n}"
						}
					]
				},
				{
					"name": "https://api.calyx.net:4430/1/configs/smtp-service.json",
					"request": {
						"method": "GET",
						"header": [],
						"url": {
							"raw": "https://api.calyx.net:4430/1/configs/smtp-service.json",
							"protocol": "https",
							"host": [
								"api",
								"calyx",
								"net"
							],
							"port": "4430",
							"path": [
								"1",
								"configs",
								"smtp-service.json"
							]
						}
					},
					"response": [
						{
							"name": "https://api.calyx.net:4430/1/configs/smtp-service.json",
							"originalRequest": {
								"method": "GET",
								"header": [],
								"url": {
									"raw": "https://api.calyx.net:4430/1/configs/smtp-service.json",
									"protocol": "https",
									"host": [
										"api",
										"calyx",
										"net"
									],
									"port": "4430",
									"path": [
										"1",
										"configs",
										"smtp-service.json"
									]
								}
							},
							"status": "OK",
							"code": 200,
							"_postman_previewlanguage": "json",
							"header": [
								{
									"key": "Date",
									"value": "Tue, 07 Apr 2020 04:22:43 GMT"
								},
								{
									"key": "Server",
									"value": "Apache/2.4.10 (Debian)"
								},
								{
									"key": "X-Frame-Options",
									"value": "DENY"
								},
								{
									"key": "X-XSS-Protection",
									"value": "1; mode=block"
								},
								{
									"key": "X-Content-Type-Options",
									"value": "nosniff"
								},
								{
									"key": "Cache-Control",
									"value": "no-cache, no-store"
								},
								{
									"key": "Pragma",
									"value": "no-cache"
								},
								{
									"key": "Expires",
									"value": "0"
								},
								{
									"key": "Content-Language",
									"value": "en"
								},
								{
									"key": "X-Request-Id",
									"value": "5e51dcb9-125e-4695-aa0b-8a3a4f39286f"
								},
								{
									"key": "Last-Modified",
									"value": "Sun, 02 Jul 2017 04:41:33 GMT"
								},
								{
									"key": "Status",
									"value": "200 OK"
								},
								{
									"key": "Keep-Alive",
									"value": "timeout=5, max=100"
								},
								{
									"key": "Connection",
									"value": "Keep-Alive"
								},
								{
									"key": "Transfer-Encoding",
									"value": "chunked"
								},
								{
									"key": "Content-Type",
									"value": "application/json; charset=utf-8"
								}
							],
							"cookie": [],
							"body": "{\n    \"hosts\": {},\n    \"locations\": {},\n    \"serial\": 1,\n    \"version\": 1\n}"
						}
					]
				}
			],
			"protocolProfileBehavior": {}
		},
		{
			"name": "Riseup",
			"item": [
				{
					"name": "https://api.black.riseup.net/3/cert",
					"request": {
						"method": "POST",
						"header": [],
						"url": {
							"raw": "https://api.black.riseup.net/3/cert",
							"protocol": "https",
							"host": [
								"api",
								"black",
								"riseup",
								"net"
							],
							"path": [
								"3",
								"cert"
							]
						}
					},
					"response": [
						{
							"name": "https://api.black.riseup.net/3/cert",
							"originalRequest": {
								"method": "POST",
								"header": [],
								"url": {
									"raw": "https://api.black.riseup.net/3/cert",
									"protocol": "https",
									"host": [
										"api",
										"black",
										"riseup",
										"net"
									],
									"path": [
										"3",
										"cert"
									]
								}
							},
							"status": "OK",
							"code": 200,
							"_postman_previewlanguage": "plain",
							"header": [
								{
									"key": "Date",
									"value": "Sat, 04 Apr 2020 19:58:13 GMT"
								},
								{
									"key": "Server",
									"value": "Apache"
								},
								{
									"key": "X-Frame-Options",
									"value": "DENY"
								},
								{
									"key": "X-Frame-Options",
									"value": "DENY"
								},
								{
									"key": "X-XSS-Protection",
									"value": "1; mode=block"
								},
								{
									"key": "X-Content-Type-Options",
									"value": "nosniff"
								},
								{
									"key": "Cache-Control",
									"value": "no-cache, no-store, must-revalidate"
								},
								{
									"key": "Pragma",
									"value": "no-cache"
								},
								{
									"key": "Expires",
									"value": "0"
								},
								{
									"key": "Content-Language",
									"value": "en"
								},
								{
									"key": "X-Request-Id",
									"value": "9c8dcafd-37e3-4c22-8295-89315cff0712"
								},
								{
									"key": "Status",
									"value": "200 OK"
								},
								{
									"key": "Keep-Alive",
									"value": "timeout=5, max=100"
								},
								{
									"key": "Connection",
									"value": "Keep-Alive"
								},
								{
									"key": "Transfer-Encoding",
									"value": "chunked"
								},
								{
									"key": "Content-Type",
									"value": "text/plain; charset=utf-8"
								}
							],
							"cookie": [],
							"body": "-----BEGIN RSA PRIVATE KEY-----\nMIIEowIBAAKCAQEAt5HtJh3ULGvn0h5cKiro5/8cvumyR8GZiPUO/18KbwO5Oluq\nDMF5Q9e+uUIaaCRhkY2IWL8wr50y8KTIeonlYHO9rCgpeeZqPcq9rrJXUOMB3aDE\n+kCJ2dsjyUedHDMYMJjm0uqQVBAE3yqNV7AeBH5J4N1nemOC5YbDCKuOkfu9WnTT\nUs2ETRX4WsdaB9VuCih22+EDVnXfh7fvLLZUwY9wAVPk2Wg2JoOjNVnrNwLp4+Fz\nUJcuMdNdCDY+mP5hUH3H2sjqszmw/VIfs0Cs5z+jPBdIrI6fTHPjL/k/KD1bGPFJ\noWPC4JLOUl7FbLSmnqYi83HhuolRQnoiwGNdawIDAQABAoIBAGILO4k/J0Jug4tz\nEbCn6Gt4kybYdJLksRc4I8F7RnxSlcy4hpN3hkgY49HYn3f97mqqGCemPd+d60Yi\nDL1+BxfD2YsojDaCPT4xmavDruURyb5QjsRGUhocc/meGSillYbnM2l1RI7RW3jC\nJmmuM+ocdWL3fbwdiB0FJAfucSBAV6CgC093rSzkVjYq3bKSUicEgLaBcLi0lJoN\n2M/xE8gkLaky4WaGH9/p2jBYxJyU52GlAGNqwwgPXIwPiu9W/UlRXAKeYtEgT1XJ\n0jimsAXBbjZgQZ7j3/HKen1f0NzJ+kthDRQBy3eo0/liHIlJ0f70P0qreJC2ABDP\n9jp+ZwkCgYEA3KiHVaiESFOqrwwW3FQEveASUfeK+ZLgKsw1tsQNw/fFCh6bQUq0\nYXz8ebxaAZ12owDy7y8AeM7mdP0RBZKTixUgUUGEIRON8Hogdo7x8oLW4Uv/R80g\nwOihQNBboLCxsw0arnFRiX7ym3nbQ5Rt4jdlfDc+rhS1mP5uW9pv+3UCgYEA1Piy\ncrwd6wel0RqMvitKfejnAnHNleZjZoA8ScIkUnANZH5HYAylqyZNDeJS7/1H0kJD\nL6XoBL2tf/eSyejVid4j9fz5EOu7Zl0U1IfCY4Cx8/FZKSuCcXhVomz/WYYlD0//\nw54Esp3WQ4xxlt5hd6BN+3jI0MfHu/1lVvd4OV8CgYBjAEoYKI+RU9iUyTvIhvnJ\npysRE5uK9lcVXKIM6lGyxwvkym6mELp1svokNFm9t8RuxhI5NkFj8pB7lL96XJVO\nJaBmVJrPrFJWvrSp/OCZChMW6l4S/PnhE36l8dXqdtyDlTGPatBGfGqlTzsNSx8y\nC+DAppi8yhXgGuew1oS/sQKBgGtbtzEpbXeGUmt3k81lq1aPaqyLy9Qt4JvSNxID\ngSXhgI7RLY/YsEb3ts4x8hcyudrfNlk1rCF/sI+asO+BpOusBLrDPJbwDncKoy6E\nBVT9kjdjyct8OHSU8a5AffSWL+ZpMIhfBwU3lcRVbwlbrwyLzePfvnOo0iINGeHe\nPEfHAoGBAKy14DysQSZW0oSOaZgc5REUwwgO75lGc0X1jWLzNZkUzwwY7Pz/02tR\n54rily/tuUCOmjQDD1FgPV0UXejG+Y1YNGOS15BrrlElNsTeAULKilNVqZFy7Caz\nOQsyDSJWj4tuAxjBiOQpQumO/fXcM6+chsnAy9llxG7lghekfzRf\n-----END RSA PRIVATE KEY-----\n-----BEGIN CERTIFICATE-----\nMIIEnDCCAoSgAwIBAgIRANqfjR8uYP+ukV46B33eqyswDQYJKoZIhvcNAQELBQAw\ndTEYMBYGA1UECgwPUmlzZXVwIE5ldHdvcmtzMRswGQYDVQQLDBJodHRwczovL3Jp\nc2V1cC5uZXQxPDA6BgNVBAMMM1Jpc2V1cCBOZXR3b3JrcyBSb290IENBIChjbGll\nbnQgY2VydGlmaWNhdGVzIG9ubHkhKTAeFw0yMDAzMDQwMDAwMDBaFw0yMDA2MDQw\nMDAwMDBaMC0xKzApBgNVBAMMIlVOTElNSVRFRDM4ZGY3ZTFkc2Iyd3BwemNkaDZ3\nMDkxeWIwggEiMA0GCSqGSIb3DQEBAQUAA4IBDwAwggEKAoIBAQC3ke0mHdQsa+fS\nHlwqKujn/xy+6bJHwZmI9Q7/XwpvA7k6W6oMwXlD1765QhpoJGGRjYhYvzCvnTLw\npMh6ieVgc72sKCl55mo9yr2usldQ4wHdoMT6QInZ2yPJR50cMxgwmObS6pBUEATf\nKo1XsB4Efkng3Wd6Y4LlhsMIq46R+71adNNSzYRNFfhax1oH1W4KKHbb4QNWdd+H\nt+8stlTBj3ABU+TZaDYmg6M1Wes3Aunj4XNQly4x010INj6Y/mFQfcfayOqzObD9\nUh+zQKznP6M8F0isjp9Mc+Mv+T8oPVsY8UmhY8Lgks5SXsVstKaepiLzceG6iVFC\neiLAY11rAgMBAAGjbzBtMB0GA1UdDgQWBBQiDukx7YKVos/AO4mzJrHB7BkxazAL\nBgNVHQ8EBAMCB4AwEwYDVR0lBAwwCgYIKwYBBQUHAwIwCQYDVR0TBAIwADAfBgNV\nHSMEGDAWgBQX9BvV5SoBAU1rol02CikJlmWARjANBgkqhkiG9w0BAQsFAAOCAgEA\nFOTwcwkj26ZEuRyvpxBUxhGJkQ28/erDqqu2UcbiXDM8XWm9z/oOC6dPIFn3qpJ6\nJpKX9VzhA+ChND8+NxjVGZ0eZ37UBms2wSSUzNiqlPZDtlgJbA251q+RjRsnoZd8\n/PPMMtheCUZaN0kaZWtgh2/LwTA9N5GV6cvUclIYOdVpKgzuGSX3NEmASEhk5etY\nje+pa4rbwrD8SLhuMg2o3aGXrrYAtaQazHeWvaFAABOmj0BPJV624wET67YXOFQ0\nBQ0+NGtaChYcphpv+EcN5HQv4WzzN6AtJtRFzHOq1wiU/L4CDNxGhIBSLXYn5XJh\nkBpuGCmAKki4WbfSzVNnoq/UxM8dy9sA7us3aXgijE8UaHID5VYxoRfNpH/0bT68\nvgiNRzhu8u9/cLVJgZhnjYZdd7b/wdHJ9qjhXE8XQoKjhmdmxh62eeI/L5eMUXx1\nojOePYr+Ng1UfhcV96RO51yhKuHBJuaJsJhuV4n4v/uNRi0d8detCyFEiTayDTWN\nN28oSCmURCYtf8UqnBwbPVBwDC8nrRiuyy7GySnEy2Ho5YlOElQq/vF1Dy7djiU/\nT5arWcyqP+XeYg6/hPfrNhovkEenE085OpEjm+3LZx/apgWZZ+B3dQ84Gt64ur9b\nMlWS7RYuR5r1BGyJ4yJwmrtD049H9JuDGjpWIsIsBEM=\n-----END CERTIFICATE-----\n"
						}
					]
				},
				{
					"name": "https://black.riseup.net/ca.crt",
					"request": {
						"method": "GET",
						"header": [],
						"url": {
							"raw": "https://black.riseup.net/ca.crt",
							"protocol": "https",
							"host": [
								"black",
								"riseup",
								"net"
							],
							"path": [
								"ca.crt"
							]
						}
					},
					"response": [
						{
							"name": "https://black.riseup.net/ca.crt",
							"originalRequest": {
								"method": "GET",
								"header": [],
								"url": {
									"raw": "https://black.riseup.net/ca.crt",
									"protocol": "https",
									"host": [
										"black",
										"riseup",
										"net"
									],
									"path": [
										"ca.crt"
									]
								}
							},
							"status": "OK",
							"code": 200,
							"_postman_previewlanguage": "raw",
							"header": [
								{
									"key": "Date",
									"value": "Sat, 04 Apr 2020 19:58:24 GMT"
								},
								{
									"key": "Server",
									"value": "Apache"
								},
								{
									"key": "Last-Modified",
									"value": "Wed, 07 May 2014 05:40:05 GMT"
								},
								{
									"key": "ETag",
									"value": "\"7c0-4f8c8cbf23ca8\""
								},
								{
									"key": "Accept-Ranges",
									"value": "bytes"
								},
								{
									"key": "Content-Length",
									"value": "1984"
								},
								{
									"key": "X-Frame-Options",
									"value": "DENY"
								},
								{
									"key": "Keep-Alive",
									"value": "timeout=5, max=100"
								},
								{
									"key": "Connection",
									"value": "Keep-Alive"
								},
								{
									"key": "Content-Type",
									"value": "application/x-x509-ca-cert"
								}
							],
							"cookie": [],
							"body": "-----BEGIN CERTIFICATE-----\nMIIFjTCCA3WgAwIBAgIBATANBgkqhkiG9w0BAQ0FADBZMRgwFgYDVQQKDA9SaXNl\ndXAgTmV0d29ya3MxGzAZBgNVBAsMEmh0dHBzOi8vcmlzZXVwLm5ldDEgMB4GA1UE\nAwwXUmlzZXVwIE5ldHdvcmtzIFJvb3QgQ0EwHhcNMTQwNDI4MDAwMDAwWhcNMjQw\nNDI4MDAwMDAwWjBZMRgwFgYDVQQKDA9SaXNldXAgTmV0d29ya3MxGzAZBgNVBAsM\nEmh0dHBzOi8vcmlzZXVwLm5ldDEgMB4GA1UEAwwXUmlzZXVwIE5ldHdvcmtzIFJv\nb3QgQ0EwggIiMA0GCSqGSIb3DQEBAQUAA4ICDwAwggIKAoICAQC76J4ciMJ8Sg0m\nTP7DF2DT9zNe0Csk4myoMFC57rfJeqsAlJCv1XMzBmXrw8wq/9z7XHv6n/0sWU7a\n7cF2hLR33ktjwODlx7vorU39/lXLndo492ZBhXQtG1INMShyv+nlmzO6GT7ESfNE\nLliFitEzwIegpMqxCIHXFuobGSCWF4N0qLHkq/SYUMoOJ96O3hmPSl1kFDRMtWXY\niw1SEKjUvpyDJpVs3NGxeLCaA7bAWhDY5s5Yb2fA1o8ICAqhowurowJpW7n5ZuLK\n5VNTlNy6nZpkjt1QycYvNycffyPOFm/Q/RKDlvnorJIrihPkyniV3YY5cGgP+Qkx\nHUOT0uLA6LHtzfiyaOqkXwc4b0ZcQD5Vbf6Prd20Ppt6ei0zazkUPwxld3hgyw58\nm/4UIjG3PInWTNf293GngK2Bnz8Qx9e/6TueMSAn/3JBLem56E0WtmbLVjvko+LF\nPM5xA+m0BmuSJtrD1MUCXMhqYTtiOvgLBlUm5zkNxALzG+cXB28k6XikXt6MRG7q\nhzIPG38zwkooM55yy5i1YfcIi5NjMH6A+t4IJxxwb67MSb6UFOwg5kFokdONZcwj\nshczHdG9gLKSBIvrKa03Nd3W2dF9hMbRu//STcQxOailDBQCnXXfAATj9pYzdY4k\nha8VCAREGAKTDAex9oXf1yRuktES4QIDAQABo2AwXjAdBgNVHQ4EFgQUC4tdmLVu\nf9hwfK4AGliaet5KkcgwDgYDVR0PAQH/BAQDAgIEMAwGA1UdEwQFMAMBAf8wHwYD\nVR0jBBgwFoAUC4tdmLVuf9hwfK4AGliaet5KkcgwDQYJKoZIhvcNAQENBQADggIB\nAGzL+GRnYu99zFoy0bXJKOGCF5XUXP/3gIXPRDqQf5g7Cu/jYMID9dB3No4Zmf7v\nqHjiSXiS8jx1j/6/Luk6PpFbT7QYm4QLs1f4BlfZOti2KE8r7KRDPIecUsUXW6P/\n3GJAVYH/+7OjA39za9AieM7+H5BELGccGrM5wfl7JeEz8in+V2ZWDzHQO4hMkiTQ\n4ZckuaL201F68YpiItBNnJ9N5nHr1MRiGyApHmLXY/wvlrOpclh95qn+lG6/2jk7\n3AmihLOKYMlPwPakJg4PYczm3icFLgTpjV5sq2md9bRyAg3oPGfAuWHmKj2Ikqch\nTd5CHKGxEEWbGUWEMP0s1A/JHWiCbDigc4Cfxhy56CWG4q0tYtnc2GMw8OAUO6Wf\nXu5pYKNkzKSEtT/MrNJt44tTZWbKV/Pi/N2Fx36my7TgTUj7g3xcE9eF4JV2H/sg\ntsK3pwE0FEqGnT4qMFbixQmc8bGyuakr23wjMvfO7eZUxBuWYR2SkcP26sozF9PF\ntGhbZHQVGZUTVPyvwahMUEhbPGVerOW0IYpxkm0x/eaWdTc4vPpf/rIlgbAjarnJ\nUN9SaWRlWKSdP4haujnzCoJbM7dU9bjvlGZNyXEekgeT0W2qFeGGp+yyUWw8tNsp\n0BuC1b7uW/bBn/xKm319wXVDvBgZgcktMolak39V7DVO\n-----END CERTIFICATE-----\n"
						}
					]
				},
				{
					"name": "https://riseup.net/provider.json",
					"request": {
						"method": "GET",
						"header": [],
						"url": {
							"raw": "https://riseup.net/provider.json",
							"protocol": "https",
							"host": [
								"riseup",
								"net"
							],
							"path": [
								"provider.json"
							]
						}
					},
					"response": [
						{
							"name": "https://riseup.net/provider.json",
							"originalRequest": {
								"method": "GET",
								"header": [],
								"url": {
									"raw": "https://riseup.net/provider.json",
									"protocol": "https",
									"host": [
										"riseup",
										"net"
									],
									"path": [
										"provider.json"
									]
								}
							},
							"status": "OK",
							"code": 200,
							"_postman_previewlanguage": "json",
							"header": [
								{
									"key": "Date",
									"value": "Sun, 05 Apr 2020 17:11:01 GMT"
								},
								{
									"key": "Server",
									"value": "Apache"
								},
								{
									"key": "Strict-Transport-Security",
									"value": "max-age=15768000;includeSubdomains;preload"
								},
								{
									"key": "Last-Modified",
									"value": "Tue, 28 Jan 2020 22:20:19 GMT"
								},
								{
									"key": "ETag",
									"value": "\"3d9-59d3aa10d0ee9\""
								},
								{
									"key": "Accept-Ranges",
									"value": "bytes"
								},
								{
									"key": "Content-Length",
									"value": "985"
								},
								{
									"key": "X-Frame-Options",
									"value": "deny"
								},
								{
									"key": "Content-Security-Policy",
									"value": "default-src 'none'; script-src 'strict-dynamic' 'sha256-r/XIcrT23QQswOv6/IoHv3QtH0CP0fq90mrqhBYw0Bk='; style-src 'self'; img-src 'self'; font-src 'self'; object-src 'none'; base-uri 'self'; "
								},
								{
									"key": "X-Minimum-Client-Version",
									"value": "0.9.2"
								},
								{
									"key": "Keep-Alive",
									"value": "timeout=5, max=100"
								},
								{
									"key": "Connection",
									"value": "Keep-Alive"
								},
								{
									"key": "Content-Type",
									"value": "application/json"
								}
							],
							"cookie": [],
							"body": "{\n    \"api_uri\": \"https://api.black.riseup.net:443\",\n    \"api_version\": \"3\",\n    \"ca_cert_fingerprint\": \"SHA256: a5244308a1374709a9afce95e3ae47c1b44bc2398c0a70ccbf8b3a8a97f29494\",\n    \"ca_cert_uri\": \"https://black.riseup.net/ca.crt\",\n    \"default_language\": \"en\",\n    \"description\": {\n        \"en\": \"Riseup is a non-profit collective in Seattle that provides online communication tools for people and groups working toward liberatory social change.\"\n    },\n    \"domain\": \"riseup.net\",\n    \"enrollment_policy\": \"open\",\n    \"languages\": [\n        \"en\"\n    ],\n    \"name\": {\n        \"en\": \"Riseup Networks\"\n    },\n    \"service\": {\n        \"allow_anonymous\": true,\n        \"allow_free\": true,\n        \"allow_limited_bandwidth\": false,\n        \"allow_paid\": false,\n        \"allow_registration\": true,\n        \"allow_unlimited_bandwidth\": true,\n        \"bandwidth_limit\": 102400,\n        \"default_service_level\": 1,\n        \"levels\": {\n            \"1\": {\n                \"description\": \"Please donate.\",\n                \"name\": \"free\"\n            }\n        }\n    },\n    \"services\": [\n        \"openvpn\"\n    ]\n}"
						}
					]
				},
				{
					"name": "https://black.riseup.net/provider.json",
					"request": {
						"method": "GET",
						"header": [],
						"url": {
							"raw": "https://black.riseup.net/provider.json",
							"protocol": "https",
							"host": [
								"black",
								"riseup",
								"net"
							],
							"path": [
								"provider.json"
							]
						}
					},
					"response": [
						{
							"name": "https://black.riseup.net/provider.json",
							"originalRequest": {
								"method": "GET",
								"header": [],
								"url": {
									"raw": "https://black.riseup.net/provider.json",
									"protocol": "https",
									"host": [
										"black",
										"riseup",
										"net"
									],
									"path": [
										"provider.json"
									]
								}
							},
							"status": "OK",
							"code": 200,
							"_postman_previewlanguage": "json",
							"header": [
								{
									"key": "Date",
									"value": "Sat, 04 Apr 2020 19:41:59 GMT"
								},
								{
									"key": "Server",
									"value": "Apache"
								},
								{
									"key": "X-Frame-Options",
									"value": "SAMEORIGIN"
								},
								{
									"key": "X-Frame-Options",
									"value": "DENY"
								},
								{
									"key": "X-XSS-Protection",
									"value": "1; mode=block"
								},
								{
									"key": "X-Content-Type-Options",
									"value": "nosniff"
								},
								{
									"key": "X-Minimum-Client-Version",
									"value": "0.9.2"
								},
								{
									"key": "Cache-Control",
									"value": "max-age=0, private, must-revalidate"
								},
								{
									"key": "X-Request-Id",
									"value": "6310ee53-77b1-41fb-b4ad-5fafaabd5189"
								},
								{
									"key": "Last-Modified",
									"value": "Tue, 28 Jan 2020 23:11:28 GMT"
								},
								{
									"key": "Status",
									"value": "200 OK"
								},
								{
									"key": "Keep-Alive",
									"value": "timeout=5, max=100"
								},
								{
									"key": "Connection",
									"value": "Keep-Alive"
								},
								{
									"key": "Transfer-Encoding",
									"value": "chunked"
								},
								{
									"key": "Content-Type",
									"value": "application/json; charset=utf-8"
								}
							],
							"cookie": [],
							"body": "{\n    \"api_uri\": \"https://api.black.riseup.net:443\",\n    \"api_version\": \"3\",\n    \"ca_cert_fingerprint\": \"SHA256: a5244308a1374709a9afce95e3ae47c1b44bc2398c0a70ccbf8b3a8a97f29494\",\n    \"ca_cert_uri\": \"https://black.riseup.net/ca.crt\",\n    \"default_language\": \"en\",\n    \"description\": {\n        \"en\": \"Riseup is a non-profit collective in Seattle that provides online communication tools for people and groups working toward liberatory social change.\"\n    },\n    \"domain\": \"riseup.net\",\n    \"enrollment_policy\": \"closed\",\n    \"languages\": [\n        \"en\"\n    ],\n    \"name\": {\n        \"en\": \"Riseup Networks\"\n    },\n    \"service\": {\n        \"allow_anonymous\": true,\n        \"allow_free\": true,\n        \"allow_limited_bandwidth\": false,\n        \"allow_paid\": false,\n        \"allow_registration\": false,\n        \"allow_unlimited_bandwidth\": true,\n        \"bandwidth_limit\": 102400,\n        \"default_service_level\": 1,\n        \"levels\": {\n            \"1\": {\n                \"description\": \"Please donate.\",\n                \"name\": \"free\"\n            }\n        }\n    },\n    \"services\": [\n        \"openvpn\"\n    ]\n}"
						}
					]
				},
				{
					"name": "https://api.black.riseup.net:443/provider.json",
					"request": {
						"method": "GET",
						"header": [],
						"url": {
							"raw": "https://api.black.riseup.net:443/provider.json",
							"protocol": "https",
							"host": [
								"api",
								"black",
								"riseup",
								"net"
							],
							"port": "443",
							"path": [
								"provider.json"
							]
						}
					},
					"response": [
						{
							"name": "https://api.black.riseup.net:443/provider.json",
							"originalRequest": {
								"method": "GET",
								"header": [],
								"url": {
									"raw": "https://api.black.riseup.net:443/provider.json",
									"protocol": "https",
									"host": [
										"api",
										"black",
										"riseup",
										"net"
									],
									"port": "443",
									"path": [
										"provider.json"
									]
								}
							},
							"status": "OK",
							"code": 200,
							"_postman_previewlanguage": "json",
							"header": [
								{
									"key": "Date",
									"value": "Sun, 05 Apr 2020 17:10:41 GMT"
								},
								{
									"key": "Server",
									"value": "Apache"
								},
								{
									"key": "X-Frame-Options",
									"value": "SAMEORIGIN"
								},
								{
									"key": "X-Frame-Options",
									"value": "DENY"
								},
								{
									"key": "X-XSS-Protection",
									"value": "1; mode=block"
								},
								{
									"key": "X-Content-Type-Options",
									"value": "nosniff"
								},
								{
									"key": "X-Minimum-Client-Version",
									"value": "0.9.2"
								},
								{
									"key": "Cache-Control",
									"value": "max-age=0, private, must-revalidate"
								},
								{
									"key": "X-Request-Id",
									"value": "25a5711c-9c36-4e28-a9b8-bd14f6668020"
								},
								{
									"key": "Last-Modified",
									"value": "Tue, 28 Jan 2020 23:11:28 GMT"
								},
								{
									"key": "Status",
									"value": "200 OK"
								},
								{
									"key": "Keep-Alive",
									"value": "timeout=5, max=100"
								},
								{
									"key": "Connection",
									"value": "Keep-Alive"
								},
								{
									"key": "Transfer-Encoding",
									"value": "chunked"
								},
								{
									"key": "Content-Type",
									"value": "application/json; charset=utf-8"
								}
							],
							"cookie": [],
							"body": "{\n    \"api_uri\": \"https://api.black.riseup.net:443\",\n    \"api_version\": \"3\",\n    \"ca_cert_fingerprint\": \"SHA256: a5244308a1374709a9afce95e3ae47c1b44bc2398c0a70ccbf8b3a8a97f29494\",\n    \"ca_cert_uri\": \"https://black.riseup.net/ca.crt\",\n    \"default_language\": \"en\",\n    \"description\": {\n        \"en\": \"Riseup is a non-profit collective in Seattle that provides online communication tools for people and groups working toward liberatory social change.\"\n    },\n    \"domain\": \"riseup.net\",\n    \"enrollment_policy\": \"closed\",\n    \"languages\": [\n        \"en\"\n    ],\n    \"name\": {\n        \"en\": \"Riseup Networks\"\n    },\n    \"service\": {\n        \"allow_anonymous\": true,\n        \"allow_free\": true,\n        \"allow_limited_bandwidth\": false,\n        \"allow_paid\": false,\n        \"allow_registration\": false,\n        \"allow_unlimited_bandwidth\": true,\n        \"bandwidth_limit\": 102400,\n        \"default_service_level\": 1,\n        \"levels\": {\n            \"1\": {\n                \"description\": \"Please donate.\",\n                \"name\": \"free\"\n            }\n        }\n    },\n    \"services\": [\n        \"openvpn\"\n    ]\n}"
						}
					]
				},
				{
					"name": "https://black.riseup.net/1/configs.json",
					"request": {
						"method": "GET",
						"header": [],
						"url": {
							"raw": "https://black.riseup.net/1/configs.json",
							"protocol": "https",
							"host": [
								"black",
								"riseup",
								"net"
							],
							"path": [
								"1",
								"configs.json"
							]
						}
					},
					"response": []
				},
				{
					"name": "https://api.black.riseup.net:443/1/configs.json",
					"request": {
						"method": "GET",
						"header": [],
						"url": {
							"raw": "https://api.black.riseup.net:443/1/configs.json",
							"protocol": "https",
							"host": [
								"api",
								"black",
								"riseup",
								"net"
							],
							"port": "443",
							"path": [
								"1",
								"configs.json"
							]
						}
					},
					"response": [
						{
							"name": "https://api.black.riseup.net:443/1/configs.json",
							"originalRequest": {
								"method": "GET",
								"header": [],
								"url": {
									"raw": "https://api.black.riseup.net:443/1/configs.json",
									"protocol": "https",
									"host": [
										"api",
										"black",
										"riseup",
										"net"
									],
									"port": "443",
									"path": [
										"1",
										"configs.json"
									]
								}
							},
							"status": "OK",
							"code": 200,
							"_postman_previewlanguage": "json",
							"header": [
								{
									"key": "Date",
									"value": "Sat, 04 Apr 2020 19:49:24 GMT"
								},
								{
									"key": "Server",
									"value": "Apache"
								},
								{
									"key": "X-Frame-Options",
									"value": "DENY"
								},
								{
									"key": "X-Frame-Options",
									"value": "DENY"
								},
								{
									"key": "X-XSS-Protection",
									"value": "1; mode=block"
								},
								{
									"key": "X-Content-Type-Options",
									"value": "nosniff"
								},
								{
									"key": "Cache-Control",
									"value": "no-cache, no-store, must-revalidate"
								},
								{
									"key": "Pragma",
									"value": "no-cache"
								},
								{
									"key": "Expires",
									"value": "0"
								},
								{
									"key": "Content-Language",
									"value": "en"
								},
								{
									"key": "X-Request-Id",
									"value": "adf3a6ba-c1b6-4ac9-8ca0-179caed07299"
								},
								{
									"key": "Status",
									"value": "200 OK"
								},
								{
									"key": "Keep-Alive",
									"value": "timeout=5, max=100"
								},
								{
									"key": "Connection",
									"value": "Keep-Alive"
								},
								{
									"key": "Transfer-Encoding",
									"value": "chunked"
								},
								{
									"key": "Content-Type",
									"value": "application/json; charset=utf-8"
								}
							],
							"cookie": [],
							"body": "{\n    \"services\": {\n        \"soledad\": \"/1/configs/soledad-service.json\",\n        \"eip\": \"/1/configs/eip-service.json\",\n        \"smtp\": \"/1/configs/smtp-service.json\"\n    }\n}"
						}
					]
				},
				{
					"name": "https://api.black.riseup.net:443/1/configs/eip-service.json",
					"request": {
						"method": "GET",
						"header": [],
						"url": {
							"raw": "https://api.black.riseup.net:443/1/configs/eip-service.json",
							"protocol": "https",
							"host": [
								"api",
								"black",
								"riseup",
								"net"
							],
							"port": "443",
							"path": [
								"1",
								"configs",
								"eip-service.json"
							]
						}
					},
					"response": [
						{
							"name": "https://api.black.riseup.net:443/1/configs/eip-service.json",
							"originalRequest": {
								"method": "GET",
								"header": [],
								"url": {
									"raw": "https://api.black.riseup.net:443/1/configs/eip-service.json",
									"protocol": "https",
									"host": [
										"api",
										"black",
										"riseup",
										"net"
									],
									"port": "443",
									"path": [
										"1",
										"configs",
										"eip-service.json"
									]
								}
							},
							"status": "OK",
							"code": 200,
							"_postman_previewlanguage": "json",
							"header": [
								{
									"key": "Date",
									"value": "Sat, 04 Apr 2020 19:50:31 GMT"
								},
								{
									"key": "Server",
									"value": "Apache"
								},
								{
									"key": "X-Frame-Options",
									"value": "DENY"
								},
								{
									"key": "X-Frame-Options",
									"value": "DENY"
								},
								{
									"key": "X-XSS-Protection",
									"value": "1; mode=block"
								},
								{
									"key": "X-Content-Type-Options",
									"value": "nosniff"
								},
								{
									"key": "Cache-Control",
									"value": "no-cache, no-store"
								},
								{
									"key": "Pragma",
									"value": "no-cache"
								},
								{
									"key": "Expires",
									"value": "0"
								},
								{
									"key": "Content-Language",
									"value": "en"
								},
								{
									"key": "X-Request-Id",
									"value": "ddf293da-a224-4821-958b-322655781bc5"
								},
								{
									"key": "Last-Modified",
									"value": "Thu, 27 Feb 2020 18:35:36 GMT"
								},
								{
									"key": "Status",
									"value": "200 OK"
								},
								{
									"key": "Keep-Alive",
									"value": "timeout=5, max=100"
								},
								{
									"key": "Connection",
									"value": "Keep-Alive"
								},
								{
									"key": "Transfer-Encoding",
									"value": "chunked"
								},
								{
									"key": "Content-Type",
									"value": "application/json; charset=utf-8"
								}
							],
							"cookie": [],
							"body": "{\n    \"gateways\": [\n        {\n            \"capabilities\": {\n                \"adblock\": false,\n                \"filter_dns\": false,\n                \"limited\": false,\n                \"transport\": [\n                    {\n                        \"type\": \"openvpn\",\n                        \"protocols\": [\n                            \"tcp\"\n                        ],\n                        \"ports\": [\n                            \"1194\"\n                        ]\n                    }\n                ],\n                \"user_ips\": false\n            },\n            \"host\": \"cisne.riseup.net\",\n            \"ip_address\": \"37.218.241.7\",\n            \"location\": \"miami\"\n        },\n        {\n            \"capabilities\": {\n                \"adblock\": false,\n                \"filter_dns\": false,\n                \"limited\": false,\n                \"transport\": [\n                    {\n                        \"type\": \"openvpn\",\n                        \"protocols\": [\n                            \"tcp\"\n                        ],\n                        \"ports\": [\n                            \"443\"\n                        ]\n                    }\n                ],\n                \"user_ips\": false\n            },\n            \"host\": \"gaei.riseup.net\",\n            \"ip_address\": \"199.58.81.143\",\n            \"location\": \"montreal\"\n        },\n        {\n            \"capabilities\": {\n                \"adblock\": false,\n                \"filter_dns\": false,\n                \"limited\": false,\n                \"transport\": [\n                    {\n                        \"type\": \"obfs4\",\n                        \"protocols\": [\n                            \"tcp\"\n                        ],\n                        \"ports\": [\n                            \"23042\"\n                        ],\n                        \"options\": {\n                            \"cert\": \"/ntRNI6JYP7R6kGKldibKWj0aCsv96Hdu/jSGncPy+rcverCLI7Emod+vRkz61hM7F/udA\",\n                            \"iatMode\": \"0\"\n                        }\n                    },\n                    {\n                        \"type\": \"openvpn\",\n                        \"protocols\": [\n                            \"tcp\"\n                        ],\n                        \"ports\": [\n                            \"443\"\n                        ]\n                    }\n                ],\n                \"user_ips\": false\n            },\n            \"host\": \"garza.riseup.net\",\n            \"ip_address\": \"198.252.153.28\",\n            \"location\": \"seattle\"\n        },\n        {\n            \"capabilities\": {\n                \"adblock\": false,\n                \"filter_dns\": false,\n                \"limited\": false,\n                \"transport\": [\n                    {\n                        \"type\": \"openvpn\",\n                        \"protocols\": [\n                            \"tcp\"\n                        ],\n                        \"ports\": [\n                            \"443\"\n                        ]\n                    }\n                ],\n                \"user_ips\": false\n            },\n            \"host\": \"gaviota.riseup.net\",\n            \"ip_address\": \"103.16.26.163\",\n            \"location\": \"hongkong\"\n        },\n        {\n            \"capabilities\": {\n                \"adblock\": false,\n                \"filter_dns\": false,\n                \"limited\": false,\n                \"transport\": [\n                    {\n                        \"type\": \"openvpn\",\n                        \"protocols\": [\n                            \"tcp\"\n                        ],\n                        \"ports\": [\n                            \"443\"\n                        ]\n                    }\n                ],\n                \"user_ips\": false\n            },\n            \"host\": \"hoatzin.riseup.net\",\n            \"ip_address\": \"212.83.143.67\",\n            \"location\": \"paris\"\n        },\n        {\n            \"capabilities\": {\n                \"adblock\": false,\n                \"filter_dns\": false,\n                \"limited\": false,\n                \"transport\": [\n                    {\n                        \"type\": \"openvpn\",\n                        \"protocols\": [\n                            \"tcp\"\n                        ],\n                        \"ports\": [\n                            \"443\"\n                        ]\n                    }\n                ],\n                \"user_ips\": false\n            },\n            \"host\": \"mouette.riseup.net\",\n            \"ip_address\": \"163.172.126.44\",\n            \"location\": \"paris\"\n        },\n        {\n            \"capabilities\": {\n                \"adblock\": false,\n                \"filter_dns\": false,\n                \"limited\": false,\n                \"transport\": [\n                    {\n                        \"type\": \"openvpn\",\n                        \"protocols\": [\n                            \"tcp\"\n                        ],\n                        \"ports\": [\n                            \"443\"\n                        ]\n                    }\n                ],\n                \"user_ips\": false\n            },\n            \"host\": \"redshank.riseup.net\",\n            \"ip_address\": \"212.83.165.160\",\n            \"location\": \"amsterdam\"\n        },\n        {\n            \"capabilities\": {\n                \"adblock\": false,\n                \"filter_dns\": false,\n                \"limited\": false,\n                \"transport\": [\n                    {\n                        \"type\": \"openvpn\",\n                        \"protocols\": [\n                            \"tcp\"\n                        ],\n                        \"ports\": [\n                            \"443\"\n                        ]\n                    }\n                ],\n                \"user_ips\": false\n            },\n            \"host\": \"shag.riseup.net\",\n            \"ip_address\": \"212.83.182.127\",\n            \"location\": \"amsterdam\"\n        },\n        {\n            \"capabilities\": {\n                \"adblock\": false,\n                \"filter_dns\": false,\n                \"limited\": false,\n                \"transport\": [\n                    {\n                        \"type\": \"openvpn\",\n                        \"protocols\": [\n                            \"tcp\"\n                        ],\n                        \"ports\": [\n                            \"443\"\n                        ]\n                    }\n                ],\n                \"user_ips\": false\n            },\n            \"host\": \"yal.riseup.net\",\n            \"ip_address\": \"199.58.81.145\",\n            \"location\": \"montreal\"\n        },\n        {\n            \"capabilities\": {\n                \"adblock\": false,\n                \"filter_dns\": false,\n                \"limited\": false,\n                \"transport\": [\n                    {\n                        \"type\": \"openvpn\",\n                        \"protocols\": [\n                            \"tcp\"\n                        ],\n                        \"ports\": [\n                            \"443\"\n                        ]\n                    }\n                ],\n                \"user_ips\": false\n            },\n            \"host\": \"zarapito.riseup.net\",\n            \"ip_address\": \"212.129.62.247\",\n            \"location\": \"paris\"\n        },\n        {\n            \"capabilities\": {\n                \"adblock\": false,\n                \"filter_dns\": false,\n                \"limited\": false,\n                \"transport\": [\n                    {\n                        \"type\": \"openvpn\",\n                        \"protocols\": [\n                            \"tcp\"\n                        ],\n                        \"ports\": [\n                            \"443\"\n                        ]\n                    }\n                ],\n                \"user_ips\": false\n            },\n            \"host\": \"swan.riseup.net\",\n            \"ip_address\": \"37.218.241.106\",\n            \"location\": \"miami\"\n        }\n    ],\n    \"locations\": {\n        \"amsterdam\": {\n            \"country_code\": \"NL\",\n            \"hemisphere\": \"N\",\n            \"name\": \"Amsterdam\",\n            \"timezone\": \"+2\"\n        },\n        \"hongkong\": {\n            \"country_code\": \"HK\",\n            \"hemisphere\": \"S\",\n            \"name\": \"HongKong\",\n            \"timezone\": \"+8\"\n        },\n        \"miami\": {\n            \"country_code\": \"US\",\n            \"hemisphere\": \"S\",\n            \"name\": \"Miami\",\n            \"timezone\": \"-5\"\n        },\n        \"montreal\": {\n            \"country_code\": \"CA\",\n            \"hemisphere\": \"N\",\n            \"name\": \"Montreal\",\n            \"timezone\": \"-5\"\n        },\n        \"paris\": {\n            \"country_code\": \"FR\",\n            \"hemisphere\": \"N\",\n            \"name\": \"Paris\",\n            \"timezone\": \"+2\"\n        },\n        \"seattle\": {\n            \"country_code\": \"US\",\n            \"hemisphere\": \"N\",\n            \"name\": \"Seattle\",\n            \"timezone\": \"-7\"\n        }\n    },\n    \"openvpn_configuration\": {\n        \"auth\": \"SHA1\",\n        \"cipher\": \"AES-128-CBC\",\n        \"keepalive\": \"10 30\",\n        \"tls-cipher\": \"DHE-RSA-AES128-SHA\",\n        \"tun-ipv6\": true\n    },\n    \"serial\": 3,\n    \"version\": 3\n}"
						}
					]
				},
				{
					"name": "https://api.black.riseup.net:443/1/configs/soledad-service.json",
					"request": {
						"method": "GET",
						"header": [],
						"url": {
							"raw": "https://api.black.riseup.net:443/1/configs/soledad-service.json",
							"protocol": "https",
							"host": [
								"api",
								"black",
								"riseup",
								"net"
							],
							"port": "443",
							"path": [
								"1",
								"configs",
								"soledad-service.json"
							]
						}
					},
					"response": [
						{
							"name": "https://api.black.riseup.net:443/1/configs/soledad-service.json",
							"originalRequest": {
								"method": "GET",
								"header": [],
								"url": {
									"raw": "https://api.black.riseup.net:443/1/configs/soledad-service.json",
									"protocol": "https",
									"host": [
										"api",
										"black",
										"riseup",
										"net"
									],
									"port": "443",
									"path": [
										"1",
										"configs",
										"soledad-service.json"
									]
								}
							},
							"status": "OK",
							"code": 200,
							"_postman_previewlanguage": "json",
							"header": [
								{
									"key": "Date",
									"value": "Sat, 04 Apr 2020 19:52:00 GMT"
								},
								{
									"key": "Server",
									"value": "Apache"
								},
								{
									"key": "X-Frame-Options",
									"value": "DENY"
								},
								{
									"key": "X-Frame-Options",
									"value": "DENY"
								},
								{
									"key": "X-XSS-Protection",
									"value": "1; mode=block"
								},
								{
									"key": "X-Content-Type-Options",
									"value": "nosniff"
								},
								{
									"key": "Cache-Control",
									"value": "no-cache, no-store"
								},
								{
									"key": "Pragma",
									"value": "no-cache"
								},
								{
									"key": "Expires",
									"value": "0"
								},
								{
									"key": "Content-Language",
									"value": "en"
								},
								{
									"key": "X-Request-Id",
									"value": "3c4e4c3b-b284-4ec5-891b-24f26e45c5f8"
								},
								{
									"key": "Last-Modified",
									"value": "Wed, 16 Aug 2017 00:23:35 GMT"
								},
								{
									"key": "Status",
									"value": "200 OK"
								},
								{
									"key": "Keep-Alive",
									"value": "timeout=5, max=100"
								},
								{
									"key": "Connection",
									"value": "Keep-Alive"
								},
								{
									"key": "Transfer-Encoding",
									"value": "chunked"
								},
								{
									"key": "Content-Type",
									"value": "application/json; charset=utf-8"
								}
							],
							"cookie": [],
							"body": "{\n    \"hosts\": {},\n    \"locations\": {},\n    \"serial\": 1,\n    \"version\": 1\n}"
						}
					]
				},
				{
					"name": "https://api.black.riseup.net:443/1/configs/smtp-service.json",
					"request": {
						"method": "GET",
						"header": [],
						"url": {
							"raw": "https://api.black.riseup.net:443/1/configs/smtp-service.json",
							"protocol": "https",
							"host": [
								"api",
								"black",
								"riseup",
								"net"
							],
							"port": "443",
							"path": [
								"1",
								"configs",
								"smtp-service.json"
							]
						}
					},
					"response": [
						{
							"name": "https://api.black.riseup.net:443/1/configs/smtp-service.json",
							"originalRequest": {
								"method": "GET",
								"header": [],
								"url": {
									"raw": "https://api.black.riseup.net:443/1/configs/smtp-service.json",
									"protocol": "https",
									"host": [
										"api",
										"black",
										"riseup",
										"net"
									],
									"port": "443",
									"path": [
										"1",
										"configs",
										"smtp-service.json"
									]
								}
							},
							"status": "OK",
							"code": 200,
							"_postman_previewlanguage": "json",
							"header": [
								{
									"key": "Date",
									"value": "Sat, 04 Apr 2020 19:54:20 GMT"
								},
								{
									"key": "Server",
									"value": "Apache"
								},
								{
									"key": "X-Frame-Options",
									"value": "DENY"
								},
								{
									"key": "X-Frame-Options",
									"value": "DENY"
								},
								{
									"key": "X-XSS-Protection",
									"value": "1; mode=block"
								},
								{
									"key": "X-Content-Type-Options",
									"value": "nosniff"
								},
								{
									"key": "Cache-Control",
									"value": "no-cache, no-store"
								},
								{
									"key": "Pragma",
									"value": "no-cache"
								},
								{
									"key": "Expires",
									"value": "0"
								},
								{
									"key": "Content-Language",
									"value": "en"
								},
								{
									"key": "X-Request-Id",
									"value": "467ea937-e9b7-4c3a-b5a3-0b76c9ca9594"
								},
								{
									"key": "Last-Modified",
									"value": "Wed, 16 Aug 2017 00:23:35 GMT"
								},
								{
									"key": "Status",
									"value": "200 OK"
								},
								{
									"key": "Keep-Alive",
									"value": "timeout=5, max=100"
								},
								{
									"key": "Connection",
									"value": "Keep-Alive"
								},
								{
									"key": "Transfer-Encoding",
									"value": "chunked"
								},
								{
									"key": "Content-Type",
									"value": "application/json; charset=utf-8"
								}
							],
							"cookie": [],
							"body": "{\n    \"hosts\": {},\n    \"locations\": {},\n    \"serial\": 1,\n    \"version\": 1\n}"
						}
					]
				},
				{
					"name": "https://api.black.riseup.net:9001/json",
					"request": {
						"method": "POST",
						"header": [],
						"url": {
							"raw": "https://api.black.riseup.net:9001/json",
							"protocol": "https",
							"host": [
								"api",
								"black",
								"riseup",
								"net"
							],
							"port": "9001",
							"path": [
								"json"
							]
						}
					},
					"response": [
						{
							"name": "https://api.black.riseup.net:9001/json",
							"originalRequest": {
								"method": "POST",
								"header": [],
								"url": {
									"raw": "https://api.black.riseup.net:9001/json",
									"protocol": "https",
									"host": [
										"api",
										"black",
										"riseup",
										"net"
									],
									"port": "9001",
									"path": [
										"json"
									]
								}
							},
							"status": "OK",
							"code": 200,
							"_postman_previewlanguage": "json",
							"header": [
								{
									"key": "Date",
									"value": "Sat, 04 Apr 2020 19:57:52 GMT"
								},
								{
									"key": "Content-Length",
									"value": "309"
								},
								{
									"key": "Content-Type",
									"value": "text/plain; charset=utf-8"
								}
							],
							"cookie": [],
							"body": "{\n    \"ip\": \"198.252.153.226\",\n    \"cc\": \"US\",\n    \"city\": \"Tacoma\",\n    \"lat\": 47.2484,\n    \"lon\": -122.4643,\n    \"gateways\": [\n        \"garza.riseup.net\",\n        \"yal.riseup.net\",\n        \"gaei.riseup.net\",\n        \"swan.riseup.net\",\n        \"cisne.riseup.net\",\n        \"shag.riseup.net\",\n        \"redshank.riseup.net\",\n        \"hoatzin.riseup.net\",\n        \"mouette.riseup.net\",\n        \"zarapito.riseup.net\",\n        \"gaviota.riseup.net\"\n    ]\n}"
						}
					]
				}
			],
			"protocolProfileBehavior": {}
		}
	],
	"protocolProfileBehavior": {}
}